32_bit_adder/32_bit_adder_Resultados_simulación.txt
VCD info: dumpfile adder_output.vcd opened for output.
                   0 CLK = 0    ENB = 0    MODO = 00    A = 00000000000000000000000000000000    B = 00000000000000000000000000000000    RCI = 0 	Q = 00000000000000000000000000000000    RCO = 0
                   1 CLK = 1    ENB = 0    MODO = 00    A = 00000000000000000000000000000000    B = 00000000000000000000000000000000    RCI = 0 	Q = 00000000000000000000000000000000    RCO = 0
                   2 CLK = 0    ENB = 0    MODO = 00    A = 00000000000000000000000000000000    B = 00000000000000000000000000000000    RCI = 0 	Q = 00000000000000000000000000000000    RCO = 0
                   3 CLK = 1    ENB = 0    MODO = 00    A = 00000000000000000000000000000000    B = 00000000000000000000000000000000    RCI = 0 	Q = 00000000000000000000000000000000    RCO = 0
                   4 CLK = 0    ENB = 0    MODO = 00    A = 00000000000000000000000000000000    B = 00000000000000000000000000000000    RCI = 0 	Q = 00000000000000000000000000000000    RCO = 0
                   5 CLK = 1    ENB = 1    MODO = 00    A = 00000000000000000000000000000000    B = 00000000000000000000000000000000    RCI = 0 	Q = 00000000000000000000000000000000    RCO = 0
                   6 CLK = 0    ENB = 1    MODO = 00    A = 00000000000000000000000000000000    B = 00000000000000000000000000000000    RCI = 0 	Q = 00000000000000000000000000000000    RCO = 0
                   7 CLK = 1    ENB = 1    MODO = 00    A = 00000000000000000000000000000000    B = 00000000000000000000000000000000    RCI = 0 	Q = 00000000000000000000000000000000    RCO = 0
                   8 CLK = 0    ENB = 1    MODO = 00    A = 00000000000000000000000000000000    B = 00000000000000000000000000000000    RCI = 0 	Q = 00000000000000000000000000000000    RCO = 0
                   9 CLK = 1    ENB = 1    MODO = 00    A = 00000000000000000000000000000000    B = 00000000000000000000000000000000    RCI = 0 	Q = 00000000000000000000000000000000    RCO = 0
                  10 CLK = 0    ENB = 1    MODO = 00    A = 00000000000000000000000000000000    B = 00000000000000000000000000000000    RCI = 0 	Q = 00000000000000000000000000000000    RCO = 0
                  11 CLK = 1    ENB = 1    MODO = 00    A = 00000000000000000000000000000000    B = 00000000000000000000000000000000    RCI = 0 	Q = 00000000000000000000000000000000    RCO = 0
                  12 CLK = 0    ENB = 1    MODO = 00    A = 00000000000000000000000000000000    B = 00000000000000000000000000000000    RCI = 0 	Q = 00000000000000000000000000000000    RCO = 0
                  13 CLK = 1    ENB = 1    MODO = 00    A = 00000000000000000000000000000000    B = 00000000000000000000000000000000    RCI = 0 	Q = 00000000000000000000000000000000    RCO = 0
                  14 CLK = 0    ENB = 1    MODO = 00    A = 00000000000000000000000000000000    B = 00000000000000000000000000000000    RCI = 0 	Q = 00000000000000000000000000000000    RCO = 0
                  15 CLK = 1    ENB = 1    MODO = 00    A = 00000000000000000000000000000000    B = 00000000000000000000000000000000    RCI = 0 	Q = 00000000000000000000000000000000    RCO = 0
                  16 CLK = 0    ENB = 1    MODO = 00    A = 00000000000000000000000000000000    B = 00000000000000000000000000000000    RCI = 0 	Q = 00000000000000000000000000000000    RCO = 0
                  17 CLK = 1    ENB = 1    MODO = 00    A = 00000000000000000000000000000000    B = 00000000000000000000000000000000    RCI = 0 	Q = 00000000000000000000000000000000    RCO = 0
                  18 CLK = 0    ENB = 1    MODO = 00    A = 00000000000000000000000000000000    B = 00000000000000000000000000000000    RCI = 0 	Q = 00000000000000000000000000000000    RCO = 0
                  19 CLK = 1    ENB = 1    MODO = 00    A = 00000000000000000000000000000000    B = 00000000000000000000000000000000    RCI = 0 	Q = 00000000000000000000000000000000    RCO = 0
                  20 CLK = 0    ENB = 1    MODO = 00    A = 00000000000000000000000000000000    B = 00000000000000000000000000000000    RCI = 0 	Q = 00000000000000000000000000000000    RCO = 0
                  21 CLK = 1    ENB = 1    MODO = 00    A = 00000000000000000000000000000000    B = 00000000000000000000000000000000    RCI = 0 	Q = 00000000000000000000000000000000    RCO = 0
                  22 CLK = 0    ENB = 1    MODO = 00    A = 00000000000000000000000000000000    B = 00000000000000000000000000000000    RCI = 0 	Q = 00000000000000000000000000000000    RCO = 0
                  23 CLK = 1    ENB = 1    MODO = 00    A = 00000000000000000000000000000000    B = 00000000000000000000000000000000    RCI = 0 	Q = 00000000000000000000000000000000    RCO = 0
                  24 CLK = 0    ENB = 1    MODO = 00    A = 00000000000000000000000000000000    B = 00000000000000000000000000000000    RCI = 0 	Q = 00000000000000000000000000000000    RCO = 0
                  25 CLK = 1    ENB = 1    MODO = 00    A = 00000000000000000000000000000000    B = 00000000000000000000000000000000    RCI = 0 	Q = 00000000000000000000000000000000    RCO = 0
                  26 CLK = 0    ENB = 1    MODO = 00    A = 00000000000000000000000000000000    B = 00000000000000000000000000000000    RCI = 0 	Q = 00000000000000000000000000000000    RCO = 0
                  27 CLK = 1    ENB = 1    MODO = 00    A = 00000000000000000000000000000000    B = 00000000000000000000000000000000    RCI = 0 	Q = 00000000000000000000000000000000    RCO = 0
                  28 CLK = 0    ENB = 1    MODO = 00    A = 00000000000000000000000000000000    B = 00000000000000000000000000000000    RCI = 0 	Q = 00000000000000000000000000000000    RCO = 0
                  29 CLK = 1    ENB = 1    MODO = 00    A = 00000000000000000000000000000000    B = 00000000000000000000000000000000    RCI = 0 	Q = 00000000000000000000000000000000    RCO = 0
                  30 CLK = 0    ENB = 1    MODO = 10    A = 00000000000001000000000000000000    B = 00000000000000100000000000000000    RCI = 0 	Q = 00000000000000000000000000000000    RCO = 0
                  31 CLK = 1    ENB = 1    MODO = 10    A = 00000000000001000000000000000000    B = 00000000000000100000000000000000    RCI = 0 	Q = 00000000000000100000000000000000    RCO = 0
                  32 CLK = 0    ENB = 1    MODO = 10    A = 00000000000001000000000000000000    B = 00000000000000100000000000000000    RCI = 0 	Q = 00000000000000100000000000000000    RCO = 0
                  33 CLK = 1    ENB = 1    MODO = 10    A = 00000000000001000000000000000000    B = 00000000000000100000000000000000    RCI = 0 	Q = 00000000000000100000000000000000    RCO = 0
                  34 CLK = 0    ENB = 1    MODO = 10    A = 00000000000001000000000000000000    B = 00000000000000100000000000000000    RCI = 0 	Q = 00000000000000100000000000000000    RCO = 0
                  35 CLK = 1    ENB = 1    MODO = 10    A = 00000000000001000000000000000000    B = 00000000000000100000000000000000    RCI = 0 	Q = 00000000000000100000000000000000    RCO = 0
                  36 CLK = 0    ENB = 1    MODO = 10    A = 00000000000001000000000000000000    B = 00000000000000100000000000000000    RCI = 0 	Q = 00000000000000100000000000000000    RCO = 0
                  37 CLK = 1    ENB = 1    MODO = 10    A = 00000000000001000000000000000000    B = 00000000000000100000000000000000    RCI = 0 	Q = 00000000000000100000000000000000    RCO = 0
                  38 CLK = 0    ENB = 1    MODO = 10    A = 00000000000001000000000000000000    B = 00000000000000100000000000000000    RCI = 0 	Q = 00000000000000100000000000000000    RCO = 0
                  39 CLK = 1    ENB = 1    MODO = 10    A = 00000000000001000000000000000000    B = 00000000000000100000000000000000    RCI = 0 	Q = 00000000000000100000000000000000    RCO = 0
                  40 CLK = 0    ENB = 1    MODO = 10    A = 00000000000001000000000000000000    B = 00000000000000100000000000000000    RCI = 0 	Q = 00000000000000100000000000000000    RCO = 0
                  41 CLK = 1    ENB = 1    MODO = 10    A = 00000000000001000000000000000000    B = 00000000000000100000000000000000    RCI = 0 	Q = 00000000000000100000000000000000    RCO = 0
                  42 CLK = 0    ENB = 1    MODO = 10    A = 00000000000001000000000000000000    B = 00000000000000100000000000000000    RCI = 0 	Q = 00000000000000100000000000000000    RCO = 0
                  43 CLK = 1    ENB = 1    MODO = 10    A = 00000000000001000000000000000000    B = 00000000000000100000000000000000    RCI = 0 	Q = 00000000000000100000000000000000    RCO = 0
                  44 CLK = 0    ENB = 1    MODO = 10    A = 00000000000001000000000000000000    B = 00000000000000100000000000000000    RCI = 0 	Q = 00000000000000100000000000000000    RCO = 0
                  45 CLK = 1    ENB = 1    MODO = 10    A = 00000000000001000000000000000000    B = 00000000000000100000000000000000    RCI = 0 	Q = 00000000000000100000000000000000    RCO = 0
                  46 CLK = 0    ENB = 1    MODO = 10    A = 00000000000001000000000000000000    B = 00000000000000100000000000000000    RCI = 0 	Q = 00000000000000100000000000000000    RCO = 0
                  47 CLK = 1    ENB = 1    MODO = 10    A = 00000000000001000000000000000000    B = 00000000000000100000000000000000    RCI = 0 	Q = 00000000000000100000000000000000    RCO = 0
                  48 CLK = 0    ENB = 1    MODO = 10    A = 00000000000001000000000000000000    B = 00000000000000100000000000000000    RCI = 0 	Q = 00000000000000100000000000000000    RCO = 0
                  49 CLK = 1    ENB = 1    MODO = 10    A = 00000000000001000000000000000000    B = 00000000000000100000000000000000    RCI = 0 	Q = 00000000000000100000000000000000    RCO = 0
                  50 CLK = 0    ENB = 1    MODO = 10    A = 00000000000001000000000000000000    B = 00000000000000100000000000000000    RCI = 0 	Q = 00000000000000100000000000000000    RCO = 0
                  51 CLK = 1    ENB = 1    MODO = 10    A = 00000000000001000000000000000000    B = 00000000000000100000000000000000    RCI = 0 	Q = 00000000000000100000000000000000    RCO = 0
                  52 CLK = 0    ENB = 1    MODO = 10    A = 00000000000001000000000000000000    B = 00000000000000100000000000000000    RCI = 0 	Q = 00000000000000100000000000000000    RCO = 0
                  53 CLK = 1    ENB = 1    MODO = 10    A = 00000000000001000000000000000000    B = 00000000000000100000000000000000    RCI = 0 	Q = 00000000000000100000000000000000    RCO = 0
                  54 CLK = 0    ENB = 1    MODO = 10    A = 00000000000001000000000000000000    B = 00000000000000100000000000000000    RCI = 0 	Q = 00000000000000100000000000000000    RCO = 0
                  55 CLK = 1    ENB = 1    MODO = 01    A = 00000100000000000000000000000000    B = 00000000000000000010000000000000    RCI = 0 	Q = 00000000000001100000000000000000    RCO = 0
                  56 CLK = 0    ENB = 1    MODO = 01    A = 00000100000000000000000000000000    B = 00000000000000000010000000000000    RCI = 0 	Q = 00000000000001100000000000000000    RCO = 0
                  57 CLK = 1    ENB = 1    MODO = 01    A = 00000100000000000000000000000000    B = 00000000000000000010000000000000    RCI = 0 	Q = 00000100000000000010000000000000    RCO = 0
                  58 CLK = 0    ENB = 1    MODO = 01    A = 00000100000000000000000000000000    B = 00000000000000000010000000000000    RCI = 0 	Q = 00000100000000000010000000000000    RCO = 0
                  59 CLK = 1    ENB = 1    MODO = 01    A = 00000100000000000000000000000000    B = 00000000000000000010000000000000    RCI = 0 	Q = 00000100000000000010000000000000    RCO = 0
                  60 CLK = 0    ENB = 1    MODO = 01    A = 00000100000000000000000000000000    B = 00000000000000000010000000000000    RCI = 0 	Q = 00000100000000000010000000000000    RCO = 0
                  61 CLK = 1    ENB = 1    MODO = 01    A = 00000100000000000000000000000000    B = 00000000000000000010000000000000    RCI = 0 	Q = 00000100000000000010000000000000    RCO = 0
                  62 CLK = 0    ENB = 1    MODO = 01    A = 00000100000000000000000000000000    B = 00000000000000000010000000000000    RCI = 0 	Q = 00000100000000000010000000000000    RCO = 0
                  63 CLK = 1    ENB = 1    MODO = 01    A = 00000100000000000000000000000000    B = 00000000000000000010000000000000    RCI = 0 	Q = 00000100000000000010000000000000    RCO = 0
                  64 CLK = 0    ENB = 1    MODO = 01    A = 00000100000000000000000000000000    B = 00000000000000000010000000000000    RCI = 0 	Q = 00000100000000000010000000000000    RCO = 0
                  65 CLK = 1    ENB = 1    MODO = 01    A = 00000100000000000000000000000000    B = 00000000000000000010000000000000    RCI = 0 	Q = 00000100000000000010000000000000    RCO = 0
                  66 CLK = 0    ENB = 1    MODO = 01    A = 00000100000000000000000000000000    B = 00000000000000000010000000000000    RCI = 0 	Q = 00000100000000000010000000000000    RCO = 0
                  67 CLK = 1    ENB = 1    MODO = 01    A = 00000100000000000000000000000000    B = 00000000000000000010000000000000    RCI = 0 	Q = 00000100000000000010000000000000    RCO = 0
                  68 CLK = 0    ENB = 1    MODO = 01    A = 00000100000000000000000000000000    B = 00000000000000000010000000000000    RCI = 0 	Q = 00000100000000000010000000000000    RCO = 0
                  69 CLK = 1    ENB = 1    MODO = 01    A = 00000100000000000000000000000000    B = 00000000000000000010000000000000    RCI = 0 	Q = 00000100000000000010000000000000    RCO = 0
                  70 CLK = 0    ENB = 1    MODO = 01    A = 00000100000000000000000000000000    B = 00000000000000000010000000000000    RCI = 0 	Q = 00000100000000000010000000000000    RCO = 0
                  71 CLK = 1    ENB = 1    MODO = 01    A = 00000100000000000000000000000000    B = 00000000000000000010000000000000    RCI = 0 	Q = 00000100000000000010000000000000    RCO = 0
                  72 CLK = 0    ENB = 1    MODO = 01    A = 00000100000000000000000000000000    B = 00000000000000000010000000000000    RCI = 0 	Q = 00000100000000000010000000000000    RCO = 0
                  73 CLK = 1    ENB = 1    MODO = 01    A = 00000100000000000000000000000000    B = 00000000000000000010000000000000    RCI = 0 	Q = 00000100000000000010000000000000    RCO = 0
                  74 CLK = 0    ENB = 1    MODO = 01    A = 00000100000000000000000000000000    B = 00000000000000000010000000000000    RCI = 0 	Q = 00000100000000000010000000000000    RCO = 0
                  75 CLK = 1    ENB = 1    MODO = 01    A = 00000100000000000000000000000000    B = 00000000000000000010000000000000    RCI = 0 	Q = 00000100000000000010000000000000    RCO = 0
                  76 CLK = 0    ENB = 1    MODO = 01    A = 00000100000000000000000000000000    B = 00000000000000000010000000000000    RCI = 0 	Q = 00000100000000000010000000000000    RCO = 0
                  77 CLK = 1    ENB = 1    MODO = 01    A = 00000100000000000000000000000000    B = 00000000000000000010000000000000    RCI = 0 	Q = 00000100000000000010000000000000    RCO = 0
                  78 CLK = 0    ENB = 1    MODO = 01    A = 00000100000000000000000000000000    B = 00000000000000000010000000000000    RCI = 0 	Q = 00000100000000000010000000000000    RCO = 0
                  79 CLK = 1    ENB = 1    MODO = 01    A = 00000100000000000000000000000000    B = 00000000000000000010000000000000    RCI = 0 	Q = 00000100000000000010000000000000    RCO = 0
                  80 CLK = 0    ENB = 1    MODO = 00    A = 00000000000000000000000000000001    B = 00000000000000000000000000000000    RCI = 0 	Q = 00000100000000000010000000000000    RCO = 0
                  81 CLK = 1    ENB = 1    MODO = 00    A = 00000000000000000000000000000001    B = 00000000000000000000000000000000    RCI = 0 	Q = 00000100000000000010000000000000    RCO = 0
                  82 CLK = 0    ENB = 1    MODO = 00    A = 00000000000000000000000000000001    B = 00000000000000000000000000000000    RCI = 0 	Q = 00000100000000000010000000000000    RCO = 0
                  83 CLK = 1    ENB = 1    MODO = 00    A = 00000000000000000000000000000001    B = 00000000000000000000000000000000    RCI = 0 	Q = 00000100000000000010000000000000    RCO = 0
                  84 CLK = 0    ENB = 1    MODO = 00    A = 00000000000000000000000000000001    B = 00000000000000000000000000000000    RCI = 0 	Q = 00000100000000000010000000000000    RCO = 0
                  85 CLK = 1    ENB = 1    MODO = 00    A = 00000000000000000000000000000001    B = 00000000000000000000000000000000    RCI = 0 	Q = 00000100000000000010000000000000    RCO = 0
                  86 CLK = 0    ENB = 1    MODO = 00    A = 00000000000000000000000000000001    B = 00000000000000000000000000000000    RCI = 0 	Q = 00000100000000000010000000000000    RCO = 0
                  87 CLK = 1    ENB = 1    MODO = 00    A = 00000000000000000000000000000001    B = 00000000000000000000000000000000    RCI = 0 	Q = 00000100000000000010000000000000    RCO = 0
                  88 CLK = 0    ENB = 1    MODO = 00    A = 00000000000000000000000000000001    B = 00000000000000000000000000000000    RCI = 0 	Q = 00000100000000000010000000000000    RCO = 0
                  89 CLK = 1    ENB = 1    MODO = 00    A = 00000000000000000000000000000001    B = 00000000000000000000000000000000    RCI = 0 	Q = 00000100000000000010000000000000    RCO = 0
                  90 CLK = 0    ENB = 1    MODO = 00    A = 00000000000000000000000000000001    B = 00000000000000000000000000000000    RCI = 0 	Q = 00000100000000000010000000000000    RCO = 0
                  91 CLK = 1    ENB = 1    MODO = 00    A = 00000000000000000000000000000001    B = 00000000000000000000000000000000    RCI = 0 	Q = 00000100000000000010000000000000    RCO = 0
                  92 CLK = 0    ENB = 1    MODO = 00    A = 00000000000000000000000000000001    B = 00000000000000000000000000000000    RCI = 0 	Q = 00000100000000000010000000000000    RCO = 0
                  93 CLK = 1    ENB = 1    MODO = 00    A = 00000000000000000000000000000001    B = 00000000000000000000000000000000    RCI = 0 	Q = 00000100000000000010000000000000    RCO = 0
                  94 CLK = 0    ENB = 1    MODO = 00    A = 00000000000000000000000000000001    B = 00000000000000000000000000000000    RCI = 0 	Q = 00000100000000000010000000000000    RCO = 0
                  95 CLK = 1    ENB = 1    MODO = 00    A = 00000000000000000000000000000001    B = 00000000000000000000000000000000    RCI = 0 	Q = 00000100000000000010000000000000    RCO = 0
                  96 CLK = 0    ENB = 1    MODO = 00    A = 00000000000000000000000000000001    B = 00000000000000000000000000000000    RCI = 0 	Q = 00000100000000000010000000000000    RCO = 0
                  97 CLK = 1    ENB = 1    MODO = 00    A = 00000000000000000000000000000001    B = 00000000000000000000000000000000    RCI = 0 	Q = 00000100000000000010000000000000    RCO = 0
                  98 CLK = 0    ENB = 1    MODO = 00    A = 00000000000000000000000000000001    B = 00000000000000000000000000000000    RCI = 0 	Q = 00000100000000000010000000000000    RCO = 0
                  99 CLK = 1    ENB = 1    MODO = 00    A = 00000000000000000000000000000001    B = 00000000000000000000000000000000    RCI = 0 	Q = 00000100000000000010000000000000    RCO = 0
                 100 CLK = 0    ENB = 1    MODO = 00    A = 00000000000000000000000000000001    B = 00000000000000000000000000000000    RCI = 0 	Q = 00000100000000000010000000000000    RCO = 0
                 101 CLK = 1    ENB = 1    MODO = 00    A = 00000000000000000000000000000001    B = 00000000000000000000000000000000    RCI = 0 	Q = 00000100000000000010000000000000    RCO = 0
                 102 CLK = 0    ENB = 1    MODO = 00    A = 00000000000000000000000000000001    B = 00000000000000000000000000000000    RCI = 0 	Q = 00000100000000000010000000000000    RCO = 0
                 103 CLK = 1    ENB = 1    MODO = 00    A = 00000000000000000000000000000001    B = 00000000000000000000000000000000    RCI = 0 	Q = 00000100000000000010000000000000    RCO = 0
                 104 CLK = 0    ENB = 1    MODO = 00    A = 00000000000000000000000000000001    B = 00000000000000000000000000000000    RCI = 0 	Q = 00000100000000000010000000000000    RCO = 0
                 105 CLK = 1    ENB = 1    MODO = 11    A = 11110000111100001111000011110000    B = 00001111000011110000111100001111    RCI = 0 	Q = 00000000000000000000000000000000    RCO = 0
                 106 CLK = 0    ENB = 1    MODO = 11    A = 11110000111100001111000011110000    B = 00001111000011110000111100001111    RCI = 0 	Q = 00000000000000000000000000000000    RCO = 0
                 107 CLK = 1    ENB = 1    MODO = 11    A = 11110000111100001111000011110000    B = 00001111000011110000111100001111    RCI = 0 	Q = 00000000000000000000000000000000    RCO = 0
                 108 CLK = 0    ENB = 1    MODO = 11    A = 11110000111100001111000011110000    B = 00001111000011110000111100001111    RCI = 0 	Q = 00000000000000000000000000000000    RCO = 0
                 109 CLK = 1    ENB = 1    MODO = 11    A = 11110000111100001111000011110000    B = 00001111000011110000111100001111    RCI = 0 	Q = 00000000000000000000000000000000    RCO = 0
                 110 CLK = 0    ENB = 1    MODO = 11    A = 11110000111100001111000011110000    B = 00001111000011110000111100001111    RCI = 0 	Q = 00000000000000000000000000000000    RCO = 0
                 111 CLK = 1    ENB = 1    MODO = 11    A = 11110000111100001111000011110000    B = 00001111000011110000111100001111    RCI = 0 	Q = 00000000000000000000000000000000    RCO = 0
                 112 CLK = 0    ENB = 1    MODO = 11    A = 11110000111100001111000011110000    B = 00001111000011110000111100001111    RCI = 0 	Q = 00000000000000000000000000000000    RCO = 0
                 113 CLK = 1    ENB = 1    MODO = 11    A = 11110000111100001111000011110000    B = 00001111000011110000111100001111    RCI = 0 	Q = 00000000000000000000000000000000    RCO = 0
                 114 CLK = 0    ENB = 1    MODO = 11    A = 11110000111100001111000011110000    B = 00001111000011110000111100001111    RCI = 0 	Q = 00000000000000000000000000000000    RCO = 0
                 115 CLK = 1    ENB = 1    MODO = 11    A = 11110000111100001111000011110000    B = 00001111000011110000111100001111    RCI = 0 	Q = 00000000000000000000000000000000    RCO = 0
                 116 CLK = 0    ENB = 1    MODO = 11    A = 11110000111100001111000011110000    B = 00001111000011110000111100001111    RCI = 0 	Q = 00000000000000000000000000000000    RCO = 0
                 117 CLK = 1    ENB = 1    MODO = 11    A = 11110000111100001111000011110000    B = 00001111000011110000111100001111    RCI = 0 	Q = 00000000000000000000000000000000    RCO = 0
                 118 CLK = 0    ENB = 1    MODO = 11    A = 11110000111100001111000011110000    B = 00001111000011110000111100001111    RCI = 0 	Q = 00000000000000000000000000000000    RCO = 0
                 119 CLK = 1    ENB = 1    MODO = 11    A = 11110000111100001111000011110000    B = 00001111000011110000111100001111    RCI = 0 	Q = 00000000000000000000000000000000    RCO = 0
                 120 CLK = 0    ENB = 1    MODO = 11    A = 11110000111100001111000011110000    B = 00001111000011110000111100001111    RCI = 0 	Q = 00000000000000000000000000000000    RCO = 0
                 121 CLK = 1    ENB = 1    MODO = 11    A = 11110000111100001111000011110000    B = 00001111000011110000111100001111    RCI = 0 	Q = 00000000000000000000000000000000    RCO = 0
                 122 CLK = 0    ENB = 1    MODO = 11    A = 11110000111100001111000011110000    B = 00001111000011110000111100001111    RCI = 0 	Q = 00000000000000000000000000000000    RCO = 0
                 123 CLK = 1    ENB = 1    MODO = 11    A = 11110000111100001111000011110000    B = 00001111000011110000111100001111    RCI = 0 	Q = 00000000000000000000000000000000    RCO = 0
                 124 CLK = 0    ENB = 1    MODO = 11    A = 11110000111100001111000011110000    B = 00001111000011110000111100001111    RCI = 0 	Q = 00000000000000000000000000000000    RCO = 0
                 125 CLK = 1    ENB = 1    MODO = 11    A = 11110000111100001111000011110000    B = 00001111000011110000111100001111    RCI = 0 	Q = 00000000000000000000000000000000    RCO = 0
                 126 CLK = 0    ENB = 1    MODO = 11    A = 11110000111100001111000011110000    B = 00001111000011110000111100001111    RCI = 0 	Q = 00000000000000000000000000000000    RCO = 0
                 127 CLK = 1    ENB = 1    MODO = 11    A = 11110000111100001111000011110000    B = 00001111000011110000111100001111    RCI = 0 	Q = 00000000000000000000000000000000    RCO = 0
                 128 CLK = 0    ENB = 1    MODO = 11    A = 11110000111100001111000011110000    B = 00001111000011110000111100001111    RCI = 0 	Q = 00000000000000000000000000000000    RCO = 0
                 129 CLK = 1    ENB = 1    MODO = 11    A = 11110000111100001111000011110000    B = 00001111000011110000111100001111    RCI = 0 	Q = 00000000000000000000000000000000    RCO = 0
                 130 CLK = 0    ENB = 1    MODO = 11    A = 11110000111100001111000011110000    B = 00001111000011110000111100001111    RCI = 0 	Q = 00000000000000000000000000000000    RCO = 0
