4_bit_adder/4_bit_adder_Resultados_simulación.txt
VCD info: dumpfile adder_output.vcd opened for output.
                   0 CLK = 0    ENB = 0    MODO = 00    A = 0000    B = 0000    RCI = 0 	Q = 0000    RCO = 0
                   1 CLK = 1    ENB = 0    MODO = 00    A = 0000    B = 0000    RCI = 0 	Q = 0000    RCO = 0
                   2 CLK = 0    ENB = 0    MODO = 00    A = 0000    B = 0000    RCI = 0 	Q = 0000    RCO = 0
                   3 CLK = 1    ENB = 0    MODO = 00    A = 0000    B = 0000    RCI = 0 	Q = 0000    RCO = 0
                   4 CLK = 0    ENB = 0    MODO = 00    A = 0000    B = 0000    RCI = 0 	Q = 0000    RCO = 0
                   5 CLK = 1    ENB = 1    MODO = 11    A = 0000    B = 0000    RCI = 0 	Q = 0000    RCO = 0
                   6 CLK = 0    ENB = 1    MODO = 11    A = 0000    B = 0000    RCI = 0 	Q = 0000    RCO = 0
                   7 CLK = 1    ENB = 1    MODO = 11    A = 0000    B = 0000    RCI = 0 	Q = 0000    RCO = 0
                   8 CLK = 0    ENB = 1    MODO = 11    A = 0000    B = 0000    RCI = 0 	Q = 0000    RCO = 0
                   9 CLK = 1    ENB = 1    MODO = 11    A = 0000    B = 0000    RCI = 0 	Q = 0000    RCO = 0
                  10 CLK = 0    ENB = 1    MODO = 11    A = 0000    B = 0000    RCI = 0 	Q = 0000    RCO = 0
                  11 CLK = 1    ENB = 1    MODO = 11    A = 0000    B = 0000    RCI = 0 	Q = 0000    RCO = 0
                  12 CLK = 0    ENB = 1    MODO = 11    A = 0000    B = 0000    RCI = 0 	Q = 0000    RCO = 0
                  13 CLK = 1    ENB = 1    MODO = 11    A = 0000    B = 0000    RCI = 0 	Q = 0000    RCO = 0
                  14 CLK = 0    ENB = 1    MODO = 11    A = 0000    B = 0000    RCI = 0 	Q = 0000    RCO = 0
                  15 CLK = 1    ENB = 1    MODO = 10    A = 0110    B = 0010    RCI = 0 	Q = 0100    RCO = 0
                  16 CLK = 0    ENB = 1    MODO = 10    A = 0110    B = 0010    RCI = 0 	Q = 0100    RCO = 0
                  17 CLK = 1    ENB = 1    MODO = 10    A = 0110    B = 0010    RCI = 0 	Q = 0100    RCO = 0
                  18 CLK = 0    ENB = 1    MODO = 10    A = 0110    B = 0010    RCI = 0 	Q = 0100    RCO = 0
                  19 CLK = 1    ENB = 1    MODO = 10    A = 0110    B = 0010    RCI = 0 	Q = 0100    RCO = 0
                  20 CLK = 0    ENB = 1    MODO = 10    A = 0110    B = 0010    RCI = 0 	Q = 0100    RCO = 0
                  21 CLK = 1    ENB = 1    MODO = 10    A = 0110    B = 0010    RCI = 0 	Q = 0100    RCO = 0
                  22 CLK = 0    ENB = 1    MODO = 10    A = 0110    B = 0010    RCI = 0 	Q = 0100    RCO = 0
                  23 CLK = 1    ENB = 1    MODO = 10    A = 0110    B = 0010    RCI = 0 	Q = 0100    RCO = 0
                  24 CLK = 0    ENB = 1    MODO = 10    A = 0110    B = 0010    RCI = 0 	Q = 0100    RCO = 0
                  25 CLK = 1    ENB = 1    MODO = 10    A = 0101    B = 0101    RCI = 0 	Q = 0000    RCO = 0
                  26 CLK = 0    ENB = 1    MODO = 10    A = 0101    B = 0101    RCI = 0 	Q = 0000    RCO = 0
                  27 CLK = 1    ENB = 1    MODO = 10    A = 0101    B = 0101    RCI = 0 	Q = 0000    RCO = 0
                  28 CLK = 0    ENB = 1    MODO = 10    A = 0101    B = 0101    RCI = 0 	Q = 0000    RCO = 0
                  29 CLK = 1    ENB = 1    MODO = 10    A = 0101    B = 0101    RCI = 0 	Q = 0000    RCO = 0
                  30 CLK = 0    ENB = 1    MODO = 10    A = 0101    B = 0101    RCI = 0 	Q = 0000    RCO = 0
                  31 CLK = 1    ENB = 1    MODO = 10    A = 0101    B = 0101    RCI = 0 	Q = 0000    RCO = 0
                  32 CLK = 0    ENB = 1    MODO = 10    A = 0101    B = 0101    RCI = 0 	Q = 0000    RCO = 0
                  33 CLK = 1    ENB = 1    MODO = 10    A = 0101    B = 0101    RCI = 0 	Q = 0000    RCO = 0
                  34 CLK = 0    ENB = 1    MODO = 10    A = 0101    B = 0101    RCI = 0 	Q = 0000    RCO = 0
                  35 CLK = 1    ENB = 1    MODO = 10    A = 0010    B = 1000    RCI = 0 	Q = 1010    RCO = 1
                  36 CLK = 0    ENB = 1    MODO = 10    A = 0010    B = 1000    RCI = 0 	Q = 1010    RCO = 1
                  37 CLK = 1    ENB = 1    MODO = 10    A = 0010    B = 1000    RCI = 0 	Q = 1010    RCO = 1
                  38 CLK = 0    ENB = 1    MODO = 10    A = 0010    B = 1000    RCI = 0 	Q = 1010    RCO = 1
                  39 CLK = 1    ENB = 1    MODO = 10    A = 0010    B = 1000    RCI = 0 	Q = 1010    RCO = 1
                  40 CLK = 0    ENB = 1    MODO = 10    A = 0010    B = 1000    RCI = 0 	Q = 1010    RCO = 1
                  41 CLK = 1    ENB = 1    MODO = 10    A = 0010    B = 1000    RCI = 0 	Q = 1010    RCO = 1
                  42 CLK = 0    ENB = 1    MODO = 10    A = 0010    B = 1000    RCI = 0 	Q = 1010    RCO = 1
                  43 CLK = 1    ENB = 1    MODO = 10    A = 0010    B = 1000    RCI = 0 	Q = 1010    RCO = 1
                  44 CLK = 0    ENB = 1    MODO = 10    A = 0010    B = 1000    RCI = 0 	Q = 1010    RCO = 1
                  45 CLK = 1    ENB = 1    MODO = 11    A = 0010    B = 1000    RCI = 0 	Q = 0000    RCO = 0
                  46 CLK = 0    ENB = 1    MODO = 11    A = 0010    B = 1000    RCI = 0 	Q = 0000    RCO = 0
                  47 CLK = 1    ENB = 1    MODO = 11    A = 0010    B = 1000    RCI = 0 	Q = 0000    RCO = 0
                  48 CLK = 0    ENB = 1    MODO = 11    A = 0010    B = 1000    RCI = 0 	Q = 0000    RCO = 0
                  49 CLK = 1    ENB = 1    MODO = 11    A = 0010    B = 1000    RCI = 0 	Q = 0000    RCO = 0
                  50 CLK = 0    ENB = 1    MODO = 11    A = 0010    B = 1000    RCI = 0 	Q = 0000    RCO = 0
                  51 CLK = 1    ENB = 1    MODO = 11    A = 0010    B = 1000    RCI = 0 	Q = 0000    RCO = 0
                  52 CLK = 0    ENB = 1    MODO = 11    A = 0010    B = 1000    RCI = 0 	Q = 0000    RCO = 0
                  53 CLK = 1    ENB = 1    MODO = 11    A = 0010    B = 1000    RCI = 0 	Q = 0000    RCO = 0
                  54 CLK = 0    ENB = 1    MODO = 11    A = 0010    B = 1000    RCI = 0 	Q = 0000    RCO = 0
                  55 CLK = 1    ENB = 1    MODO = 01    A = 0110    B = 0101    RCI = 0 	Q = 1011    RCO = 0
                  56 CLK = 0    ENB = 1    MODO = 01    A = 0110    B = 0101    RCI = 0 	Q = 1011    RCO = 0
                  57 CLK = 1    ENB = 1    MODO = 01    A = 0110    B = 0101    RCI = 0 	Q = 1011    RCO = 0
                  58 CLK = 0    ENB = 1    MODO = 01    A = 0110    B = 0101    RCI = 0 	Q = 1011    RCO = 0
                  59 CLK = 1    ENB = 1    MODO = 01    A = 0110    B = 0101    RCI = 0 	Q = 1011    RCO = 0
                  60 CLK = 0    ENB = 1    MODO = 01    A = 0110    B = 0101    RCI = 0 	Q = 1011    RCO = 0
                  61 CLK = 1    ENB = 1    MODO = 01    A = 0110    B = 0101    RCI = 0 	Q = 1011    RCO = 0
                  62 CLK = 0    ENB = 1    MODO = 01    A = 0110    B = 0101    RCI = 0 	Q = 1011    RCO = 0
                  63 CLK = 1    ENB = 1    MODO = 01    A = 0110    B = 0101    RCI = 0 	Q = 1011    RCO = 0
                  64 CLK = 0    ENB = 1    MODO = 01    A = 0110    B = 0101    RCI = 0 	Q = 1011    RCO = 0
                  65 CLK = 1    ENB = 1    MODO = 01    A = 1000    B = 0100    RCI = 0 	Q = 1100    RCO = 0
                  66 CLK = 0    ENB = 1    MODO = 01    A = 1000    B = 0100    RCI = 0 	Q = 1100    RCO = 0
                  67 CLK = 1    ENB = 1    MODO = 01    A = 1000    B = 0100    RCI = 0 	Q = 1100    RCO = 0
                  68 CLK = 0    ENB = 1    MODO = 01    A = 1000    B = 0100    RCI = 0 	Q = 1100    RCO = 0
                  69 CLK = 1    ENB = 1    MODO = 01    A = 1000    B = 0100    RCI = 0 	Q = 1100    RCO = 0
                  70 CLK = 0    ENB = 1    MODO = 01    A = 1000    B = 0100    RCI = 0 	Q = 1100    RCO = 0
                  71 CLK = 1    ENB = 1    MODO = 01    A = 1000    B = 0100    RCI = 0 	Q = 1100    RCO = 0
                  72 CLK = 0    ENB = 1    MODO = 01    A = 1000    B = 0100    RCI = 0 	Q = 1100    RCO = 0
                  73 CLK = 1    ENB = 1    MODO = 01    A = 1000    B = 0100    RCI = 0 	Q = 1100    RCO = 0
                  74 CLK = 0    ENB = 1    MODO = 01    A = 1000    B = 0100    RCI = 0 	Q = 1100    RCO = 0
                  75 CLK = 1    ENB = 1    MODO = 01    A = 1111    B = 0001    RCI = 0 	Q = 0000    RCO = 1
                  76 CLK = 0    ENB = 1    MODO = 01    A = 1111    B = 0001    RCI = 0 	Q = 0000    RCO = 1
                  77 CLK = 1    ENB = 1    MODO = 01    A = 1111    B = 0001    RCI = 0 	Q = 0000    RCO = 1
                  78 CLK = 0    ENB = 1    MODO = 01    A = 1111    B = 0001    RCI = 0 	Q = 0000    RCO = 1
                  79 CLK = 1    ENB = 1    MODO = 01    A = 1111    B = 0001    RCI = 0 	Q = 0000    RCO = 1
                  80 CLK = 0    ENB = 1    MODO = 01    A = 1111    B = 0001    RCI = 0 	Q = 0000    RCO = 1
                  81 CLK = 1    ENB = 1    MODO = 01    A = 1111    B = 0001    RCI = 0 	Q = 0000    RCO = 1
                  82 CLK = 0    ENB = 1    MODO = 01    A = 1111    B = 0001    RCI = 0 	Q = 0000    RCO = 1
                  83 CLK = 1    ENB = 1    MODO = 01    A = 1111    B = 0001    RCI = 0 	Q = 0000    RCO = 1
                  84 CLK = 0    ENB = 1    MODO = 01    A = 1111    B = 0001    RCI = 0 	Q = 0000    RCO = 1
                  85 CLK = 1    ENB = 1    MODO = 00    A = 0101    B = 0010    RCI = 0 	Q = 0000    RCO = 1
                  86 CLK = 0    ENB = 1    MODO = 00    A = 0101    B = 0010    RCI = 0 	Q = 0000    RCO = 1
                  87 CLK = 1    ENB = 1    MODO = 00    A = 0101    B = 0010    RCI = 0 	Q = 0000    RCO = 1
                  88 CLK = 0    ENB = 1    MODO = 00    A = 0101    B = 0010    RCI = 0 	Q = 0000    RCO = 1
                  89 CLK = 1    ENB = 1    MODO = 00    A = 0101    B = 0010    RCI = 0 	Q = 0000    RCO = 1
                  90 CLK = 0    ENB = 1    MODO = 00    A = 0101    B = 0010    RCI = 0 	Q = 0000    RCO = 1
                  91 CLK = 1    ENB = 1    MODO = 00    A = 0101    B = 0010    RCI = 0 	Q = 0000    RCO = 1
                  92 CLK = 0    ENB = 1    MODO = 00    A = 0101    B = 0010    RCI = 0 	Q = 0000    RCO = 1
                  93 CLK = 1    ENB = 1    MODO = 00    A = 0101    B = 0010    RCI = 0 	Q = 0000    RCO = 1
                  94 CLK = 0    ENB = 1    MODO = 00    A = 0101    B = 0010    RCI = 0 	Q = 0000    RCO = 1
                  95 CLK = 1    ENB = 1    MODO = 11    A = 1111    B = 0000    RCI = 0 	Q = 0000    RCO = 0
                  96 CLK = 0    ENB = 1    MODO = 11    A = 1111    B = 0000    RCI = 0 	Q = 0000    RCO = 0
                  97 CLK = 1    ENB = 1    MODO = 11    A = 1111    B = 0000    RCI = 0 	Q = 0000    RCO = 0
                  98 CLK = 0    ENB = 1    MODO = 11    A = 1111    B = 0000    RCI = 0 	Q = 0000    RCO = 0
                  99 CLK = 1    ENB = 1    MODO = 11    A = 1111    B = 0000    RCI = 0 	Q = 0000    RCO = 0
                 100 CLK = 0    ENB = 1    MODO = 11    A = 1111    B = 0000    RCI = 0 	Q = 0000    RCO = 0
                 101 CLK = 1    ENB = 1    MODO = 11    A = 1111    B = 0000    RCI = 0 	Q = 0000    RCO = 0
                 102 CLK = 0    ENB = 1    MODO = 11    A = 1111    B = 0000    RCI = 0 	Q = 0000    RCO = 0
                 103 CLK = 1    ENB = 1    MODO = 11    A = 1111    B = 0000    RCI = 0 	Q = 0000    RCO = 0
                 104 CLK = 0    ENB = 1    MODO = 11    A = 1111    B = 0000    RCI = 0 	Q = 0000    RCO = 0
                 105 CLK = 1    ENB = 1    MODO = 11    A = 1111    B = 0000    RCI = 1 	Q = 0000    RCO = 0
                 106 CLK = 0    ENB = 1    MODO = 11    A = 1111    B = 0000    RCI = 1 	Q = 0000    RCO = 0
                 107 CLK = 1    ENB = 1    MODO = 11    A = 1111    B = 0000    RCI = 1 	Q = 0000    RCO = 0
                 108 CLK = 0    ENB = 1    MODO = 11    A = 1111    B = 0000    RCI = 1 	Q = 0000    RCO = 0
                 109 CLK = 1    ENB = 1    MODO = 11    A = 1111    B = 0000    RCI = 1 	Q = 0000    RCO = 0
                 110 CLK = 0    ENB = 1    MODO = 11    A = 1111    B = 0000    RCI = 1 	Q = 0000    RCO = 0
                 111 CLK = 1    ENB = 1    MODO = 11    A = 1111    B = 0000    RCI = 1 	Q = 0000    RCO = 0
                 112 CLK = 0    ENB = 1    MODO = 11    A = 1111    B = 0000    RCI = 1 	Q = 0000    RCO = 0
                 113 CLK = 1    ENB = 1    MODO = 11    A = 1111    B = 0000    RCI = 1 	Q = 0000    RCO = 0
                 114 CLK = 0    ENB = 1    MODO = 11    A = 1111    B = 0000    RCI = 1 	Q = 0000    RCO = 0
                 115 CLK = 1    ENB = 1    MODO = 11    A = 1111    B = 0000    RCI = 1 	Q = 0000    RCO = 0
                 116 CLK = 0    ENB = 1    MODO = 11    A = 1111    B = 0000    RCI = 1 	Q = 0000    RCO = 0
                 117 CLK = 1    ENB = 1    MODO = 11    A = 1111    B = 0000    RCI = 1 	Q = 0000    RCO = 0
                 118 CLK = 0    ENB = 1    MODO = 11    A = 1111    B = 0000    RCI = 1 	Q = 0000    RCO = 0
                 119 CLK = 1    ENB = 1    MODO = 11    A = 1111    B = 0000    RCI = 1 	Q = 0000    RCO = 0
                 120 CLK = 0    ENB = 1    MODO = 11    A = 1111    B = 0000    RCI = 1 	Q = 0000    RCO = 0
                 121 CLK = 1    ENB = 1    MODO = 11    A = 1111    B = 0000    RCI = 1 	Q = 0000    RCO = 0
                 122 CLK = 0    ENB = 1    MODO = 11    A = 1111    B = 0000    RCI = 1 	Q = 0000    RCO = 0
                 123 CLK = 1    ENB = 1    MODO = 11    A = 1111    B = 0000    RCI = 1 	Q = 0000    RCO = 0
                 124 CLK = 0    ENB = 1    MODO = 11    A = 1111    B = 0000    RCI = 1 	Q = 0000    RCO = 0
                 125 CLK = 1    ENB = 1    MODO = 10    A = 0110    B = 0010    RCI = 1 	Q = 0101    RCO = 0
                 126 CLK = 0    ENB = 1    MODO = 10    A = 0110    B = 0010    RCI = 1 	Q = 0101    RCO = 0
                 127 CLK = 1    ENB = 1    MODO = 10    A = 0110    B = 0010    RCI = 1 	Q = 0101    RCO = 0
                 128 CLK = 0    ENB = 1    MODO = 10    A = 0110    B = 0010    RCI = 1 	Q = 0101    RCO = 0
                 129 CLK = 1    ENB = 1    MODO = 10    A = 0110    B = 0010    RCI = 1 	Q = 0101    RCO = 0
                 130 CLK = 0    ENB = 1    MODO = 10    A = 0110    B = 0010    RCI = 1 	Q = 0101    RCO = 0
                 131 CLK = 1    ENB = 1    MODO = 10    A = 0110    B = 0010    RCI = 1 	Q = 0101    RCO = 0
                 132 CLK = 0    ENB = 1    MODO = 10    A = 0110    B = 0010    RCI = 1 	Q = 0101    RCO = 0
                 133 CLK = 1    ENB = 1    MODO = 10    A = 0110    B = 0010    RCI = 1 	Q = 0101    RCO = 0
                 134 CLK = 0    ENB = 1    MODO = 10    A = 0110    B = 0010    RCI = 1 	Q = 0101    RCO = 0
                 135 CLK = 1    ENB = 1    MODO = 10    A = 0101    B = 0101    RCI = 1 	Q = 0001    RCO = 0
                 136 CLK = 0    ENB = 1    MODO = 10    A = 0101    B = 0101    RCI = 1 	Q = 0001    RCO = 0
                 137 CLK = 1    ENB = 1    MODO = 10    A = 0101    B = 0101    RCI = 1 	Q = 0001    RCO = 0
                 138 CLK = 0    ENB = 1    MODO = 10    A = 0101    B = 0101    RCI = 1 	Q = 0001    RCO = 0
                 139 CLK = 1    ENB = 1    MODO = 10    A = 0101    B = 0101    RCI = 1 	Q = 0001    RCO = 0
                 140 CLK = 0    ENB = 1    MODO = 10    A = 0101    B = 0101    RCI = 1 	Q = 0001    RCO = 0
                 141 CLK = 1    ENB = 1    MODO = 10    A = 0101    B = 0101    RCI = 1 	Q = 0001    RCO = 0
                 142 CLK = 0    ENB = 1    MODO = 10    A = 0101    B = 0101    RCI = 1 	Q = 0001    RCO = 0
                 143 CLK = 1    ENB = 1    MODO = 10    A = 0101    B = 0101    RCI = 1 	Q = 0001    RCO = 0
                 144 CLK = 0    ENB = 1    MODO = 10    A = 0101    B = 0101    RCI = 1 	Q = 0001    RCO = 0
                 145 CLK = 1    ENB = 1    MODO = 10    A = 0010    B = 1000    RCI = 1 	Q = 1011    RCO = 1
                 146 CLK = 0    ENB = 1    MODO = 10    A = 0010    B = 1000    RCI = 1 	Q = 1011    RCO = 1
                 147 CLK = 1    ENB = 1    MODO = 10    A = 0010    B = 1000    RCI = 1 	Q = 1011    RCO = 1
                 148 CLK = 0    ENB = 1    MODO = 10    A = 0010    B = 1000    RCI = 1 	Q = 1011    RCO = 1
                 149 CLK = 1    ENB = 1    MODO = 10    A = 0010    B = 1000    RCI = 1 	Q = 1011    RCO = 1
                 150 CLK = 0    ENB = 1    MODO = 10    A = 0010    B = 1000    RCI = 1 	Q = 1011    RCO = 1
                 151 CLK = 1    ENB = 1    MODO = 10    A = 0010    B = 1000    RCI = 1 	Q = 1011    RCO = 1
                 152 CLK = 0    ENB = 1    MODO = 10    A = 0010    B = 1000    RCI = 1 	Q = 1011    RCO = 1
                 153 CLK = 1    ENB = 1    MODO = 10    A = 0010    B = 1000    RCI = 1 	Q = 1011    RCO = 1
                 154 CLK = 0    ENB = 1    MODO = 10    A = 0010    B = 1000    RCI = 1 	Q = 1011    RCO = 1
                 155 CLK = 1    ENB = 1    MODO = 11    A = 0010    B = 1000    RCI = 1 	Q = 0000    RCO = 0
                 156 CLK = 0    ENB = 1    MODO = 11    A = 0010    B = 1000    RCI = 1 	Q = 0000    RCO = 0
                 157 CLK = 1    ENB = 1    MODO = 11    A = 0010    B = 1000    RCI = 1 	Q = 0000    RCO = 0
                 158 CLK = 0    ENB = 1    MODO = 11    A = 0010    B = 1000    RCI = 1 	Q = 0000    RCO = 0
                 159 CLK = 1    ENB = 1    MODO = 11    A = 0010    B = 1000    RCI = 1 	Q = 0000    RCO = 0
                 160 CLK = 0    ENB = 1    MODO = 11    A = 0010    B = 1000    RCI = 1 	Q = 0000    RCO = 0
                 161 CLK = 1    ENB = 1    MODO = 11    A = 0010    B = 1000    RCI = 1 	Q = 0000    RCO = 0
                 162 CLK = 0    ENB = 1    MODO = 11    A = 0010    B = 1000    RCI = 1 	Q = 0000    RCO = 0
                 163 CLK = 1    ENB = 1    MODO = 11    A = 0010    B = 1000    RCI = 1 	Q = 0000    RCO = 0
                 164 CLK = 0    ENB = 1    MODO = 11    A = 0010    B = 1000    RCI = 1 	Q = 0000    RCO = 0
                 165 CLK = 1    ENB = 1    MODO = 01    A = 0110    B = 0101    RCI = 1 	Q = 1100    RCO = 0
                 166 CLK = 0    ENB = 1    MODO = 01    A = 0110    B = 0101    RCI = 1 	Q = 1100    RCO = 0
                 167 CLK = 1    ENB = 1    MODO = 01    A = 0110    B = 0101    RCI = 1 	Q = 1100    RCO = 0
                 168 CLK = 0    ENB = 1    MODO = 01    A = 0110    B = 0101    RCI = 1 	Q = 1100    RCO = 0
                 169 CLK = 1    ENB = 1    MODO = 01    A = 0110    B = 0101    RCI = 1 	Q = 1100    RCO = 0
                 170 CLK = 0    ENB = 1    MODO = 01    A = 0110    B = 0101    RCI = 1 	Q = 1100    RCO = 0
                 171 CLK = 1    ENB = 1    MODO = 01    A = 0110    B = 0101    RCI = 1 	Q = 1100    RCO = 0
                 172 CLK = 0    ENB = 1    MODO = 01    A = 0110    B = 0101    RCI = 1 	Q = 1100    RCO = 0
                 173 CLK = 1    ENB = 1    MODO = 01    A = 0110    B = 0101    RCI = 1 	Q = 1100    RCO = 0
                 174 CLK = 0    ENB = 1    MODO = 01    A = 0110    B = 0101    RCI = 1 	Q = 1100    RCO = 0
                 175 CLK = 1    ENB = 1    MODO = 01    A = 1000    B = 0100    RCI = 1 	Q = 1101    RCO = 0
                 176 CLK = 0    ENB = 1    MODO = 01    A = 1000    B = 0100    RCI = 1 	Q = 1101    RCO = 0
                 177 CLK = 1    ENB = 1    MODO = 01    A = 1000    B = 0100    RCI = 1 	Q = 1101    RCO = 0
                 178 CLK = 0    ENB = 1    MODO = 01    A = 1000    B = 0100    RCI = 1 	Q = 1101    RCO = 0
                 179 CLK = 1    ENB = 1    MODO = 01    A = 1000    B = 0100    RCI = 1 	Q = 1101    RCO = 0
                 180 CLK = 0    ENB = 1    MODO = 01    A = 1000    B = 0100    RCI = 1 	Q = 1101    RCO = 0
                 181 CLK = 1    ENB = 1    MODO = 01    A = 1000    B = 0100    RCI = 1 	Q = 1101    RCO = 0
                 182 CLK = 0    ENB = 1    MODO = 01    A = 1000    B = 0100    RCI = 1 	Q = 1101    RCO = 0
                 183 CLK = 1    ENB = 1    MODO = 01    A = 1000    B = 0100    RCI = 1 	Q = 1101    RCO = 0
                 184 CLK = 0    ENB = 1    MODO = 01    A = 1000    B = 0100    RCI = 1 	Q = 1101    RCO = 0
                 185 CLK = 1    ENB = 1    MODO = 01    A = 1111    B = 0001    RCI = 1 	Q = 0001    RCO = 1
                 186 CLK = 0    ENB = 1    MODO = 01    A = 1111    B = 0001    RCI = 1 	Q = 0001    RCO = 1
                 187 CLK = 1    ENB = 1    MODO = 01    A = 1111    B = 0001    RCI = 1 	Q = 0001    RCO = 1
                 188 CLK = 0    ENB = 1    MODO = 01    A = 1111    B = 0001    RCI = 1 	Q = 0001    RCO = 1
                 189 CLK = 1    ENB = 1    MODO = 01    A = 1111    B = 0001    RCI = 1 	Q = 0001    RCO = 1
                 190 CLK = 0    ENB = 1    MODO = 01    A = 1111    B = 0001    RCI = 1 	Q = 0001    RCO = 1
                 191 CLK = 1    ENB = 1    MODO = 01    A = 1111    B = 0001    RCI = 1 	Q = 0001    RCO = 1
                 192 CLK = 0    ENB = 1    MODO = 01    A = 1111    B = 0001    RCI = 1 	Q = 0001    RCO = 1
                 193 CLK = 1    ENB = 1    MODO = 01    A = 1111    B = 0001    RCI = 1 	Q = 0001    RCO = 1
                 194 CLK = 0    ENB = 1    MODO = 01    A = 1111    B = 0001    RCI = 1 	Q = 0001    RCO = 1
                 195 CLK = 1    ENB = 1    MODO = 00    A = 0101    B = 0010    RCI = 1 	Q = 0001    RCO = 1
                 196 CLK = 0    ENB = 1    MODO = 00    A = 0101    B = 0010    RCI = 1 	Q = 0001    RCO = 1
                 197 CLK = 1    ENB = 1    MODO = 00    A = 0101    B = 0010    RCI = 1 	Q = 0001    RCO = 1
                 198 CLK = 0    ENB = 1    MODO = 00    A = 0101    B = 0010    RCI = 1 	Q = 0001    RCO = 1
                 199 CLK = 1    ENB = 1    MODO = 00    A = 0101    B = 0010    RCI = 1 	Q = 0001    RCO = 1
                 200 CLK = 0    ENB = 1    MODO = 00    A = 0101    B = 0010    RCI = 1 	Q = 0001    RCO = 1
                 201 CLK = 1    ENB = 1    MODO = 00    A = 0101    B = 0010    RCI = 1 	Q = 0001    RCO = 1
                 202 CLK = 0    ENB = 1    MODO = 00    A = 0101    B = 0010    RCI = 1 	Q = 0001    RCO = 1
                 203 CLK = 1    ENB = 1    MODO = 00    A = 0101    B = 0010    RCI = 1 	Q = 0001    RCO = 1
                 204 CLK = 0    ENB = 1    MODO = 00    A = 0101    B = 0010    RCI = 1 	Q = 0001    RCO = 1
                 205 CLK = 1    ENB = 1    MODO = 01    A = 1111    B = 0000    RCI = 1 	Q = 0000    RCO = 1
                 206 CLK = 0    ENB = 1    MODO = 01    A = 1111    B = 0000    RCI = 1 	Q = 0000    RCO = 1
                 207 CLK = 1    ENB = 1    MODO = 01    A = 1111    B = 0000    RCI = 1 	Q = 0000    RCO = 1
                 208 CLK = 0    ENB = 1    MODO = 01    A = 1111    B = 0000    RCI = 1 	Q = 0000    RCO = 1
                 209 CLK = 1    ENB = 1    MODO = 01    A = 1111    B = 0000    RCI = 1 	Q = 0000    RCO = 1
                 210 CLK = 0    ENB = 1    MODO = 01    A = 1111    B = 0000    RCI = 1 	Q = 0000    RCO = 1
                 211 CLK = 1    ENB = 1    MODO = 01    A = 1111    B = 0000    RCI = 1 	Q = 0000    RCO = 1
                 212 CLK = 0    ENB = 1    MODO = 01    A = 1111    B = 0000    RCI = 1 	Q = 0000    RCO = 1
                 213 CLK = 1    ENB = 1    MODO = 01    A = 1111    B = 0000    RCI = 1 	Q = 0000    RCO = 1
                 214 CLK = 0    ENB = 1    MODO = 01    A = 1111    B = 0000    RCI = 1 	Q = 0000    RCO = 1
                 215 CLK = 1    ENB = 0    MODO = 01    A = 1111    B = 0000    RCI = 0 	Q = 0000    RCO = 1
                 216 CLK = 0    ENB = 0    MODO = 01    A = 1111    B = 0000    RCI = 0 	Q = 0000    RCO = 1
                 217 CLK = 1    ENB = 0    MODO = 01    A = 1111    B = 0000    RCI = 0 	Q = 0000    RCO = 1
                 218 CLK = 0    ENB = 0    MODO = 01    A = 1111    B = 0000    RCI = 0 	Q = 0000    RCO = 1
                 219 CLK = 1    ENB = 0    MODO = 01    A = 1111    B = 0000    RCI = 0 	Q = 0000    RCO = 1
                 220 CLK = 0    ENB = 0    MODO = 01    A = 1111    B = 0000    RCI = 0 	Q = 0000    RCO = 1
                 221 CLK = 1    ENB = 0    MODO = 01    A = 1111    B = 0000    RCI = 0 	Q = 0000    RCO = 1
                 222 CLK = 0    ENB = 0    MODO = 01    A = 1111    B = 0000    RCI = 0 	Q = 0000    RCO = 1
                 223 CLK = 1    ENB = 0    MODO = 01    A = 1111    B = 0000    RCI = 0 	Q = 0000    RCO = 1
                 224 CLK = 0    ENB = 0    MODO = 01    A = 1111    B = 0000    RCI = 0 	Q = 0000    RCO = 1
                 225 CLK = 1    ENB = 0    MODO = 10    A = 0110    B = 0010    RCI = 0 	Q = 0000    RCO = 1
                 226 CLK = 0    ENB = 0    MODO = 10    A = 0110    B = 0010    RCI = 0 	Q = 0000    RCO = 1
                 227 CLK = 1    ENB = 0    MODO = 10    A = 0110    B = 0010    RCI = 0 	Q = 0000    RCO = 1
                 228 CLK = 0    ENB = 0    MODO = 10    A = 0110    B = 0010    RCI = 0 	Q = 0000    RCO = 1
                 229 CLK = 1    ENB = 0    MODO = 10    A = 0110    B = 0010    RCI = 0 	Q = 0000    RCO = 1
                 230 CLK = 0    ENB = 0    MODO = 10    A = 0110    B = 0010    RCI = 0 	Q = 0000    RCO = 1
                 231 CLK = 1    ENB = 0    MODO = 10    A = 0110    B = 0010    RCI = 0 	Q = 0000    RCO = 1
                 232 CLK = 0    ENB = 0    MODO = 10    A = 0110    B = 0010    RCI = 0 	Q = 0000    RCO = 1
                 233 CLK = 1    ENB = 0    MODO = 10    A = 0110    B = 0010    RCI = 0 	Q = 0000    RCO = 1
                 234 CLK = 0    ENB = 0    MODO = 10    A = 0110    B = 0010    RCI = 0 	Q = 0000    RCO = 1
                 235 CLK = 1    ENB = 0    MODO = 10    A = 0101    B = 0101    RCI = 0 	Q = 0000    RCO = 1
                 236 CLK = 0    ENB = 0    MODO = 10    A = 0101    B = 0101    RCI = 0 	Q = 0000    RCO = 1
                 237 CLK = 1    ENB = 0    MODO = 10    A = 0101    B = 0101    RCI = 0 	Q = 0000    RCO = 1
                 238 CLK = 0    ENB = 0    MODO = 10    A = 0101    B = 0101    RCI = 0 	Q = 0000    RCO = 1
                 239 CLK = 1    ENB = 0    MODO = 10    A = 0101    B = 0101    RCI = 0 	Q = 0000    RCO = 1
                 240 CLK = 0    ENB = 0    MODO = 10    A = 0101    B = 0101    RCI = 0 	Q = 0000    RCO = 1
                 241 CLK = 1    ENB = 0    MODO = 10    A = 0101    B = 0101    RCI = 0 	Q = 0000    RCO = 1
                 242 CLK = 0    ENB = 0    MODO = 10    A = 0101    B = 0101    RCI = 0 	Q = 0000    RCO = 1
                 243 CLK = 1    ENB = 0    MODO = 10    A = 0101    B = 0101    RCI = 0 	Q = 0000    RCO = 1
                 244 CLK = 0    ENB = 0    MODO = 10    A = 0101    B = 0101    RCI = 0 	Q = 0000    RCO = 1
                 245 CLK = 1    ENB = 0    MODO = 10    A = 0010    B = 1000    RCI = 0 	Q = 0000    RCO = 1
                 246 CLK = 0    ENB = 0    MODO = 10    A = 0010    B = 1000    RCI = 0 	Q = 0000    RCO = 1
                 247 CLK = 1    ENB = 0    MODO = 10    A = 0010    B = 1000    RCI = 0 	Q = 0000    RCO = 1
                 248 CLK = 0    ENB = 0    MODO = 10    A = 0010    B = 1000    RCI = 0 	Q = 0000    RCO = 1
                 249 CLK = 1    ENB = 0    MODO = 10    A = 0010    B = 1000    RCI = 0 	Q = 0000    RCO = 1
                 250 CLK = 0    ENB = 0    MODO = 10    A = 0010    B = 1000    RCI = 0 	Q = 0000    RCO = 1
                 251 CLK = 1    ENB = 0    MODO = 10    A = 0010    B = 1000    RCI = 0 	Q = 0000    RCO = 1
                 252 CLK = 0    ENB = 0    MODO = 10    A = 0010    B = 1000    RCI = 0 	Q = 0000    RCO = 1
